[
  {
    "name": "Sphere Interactive",
    "description": {
      "en": "Roblox Game Studio Website",
      "nl": "Roblox Game Studio Website",
      "ja": "ロブロックスゲームスタジオのウェブサイト"
    },
    "url": "https://sphere-interactive.com",
    "type": 1
  },
  {
    "name": "2014patrick",
    "description": {
      "en": "Portfolio Website for 2014patrick",
      "nl": "Portfolio Website voor 2014patrick",
      "ja": "2014patrickのポートフォリオサイト"
    },
    "url": "https://2014patrick.net",
    "type": 1
  }
]
